p2/simulation/qsim/practica2.msim.vcd
$comment
	File created using the following command:
		vcd file practica2.msim.vcd -direction
$end
$date
	Thu Nov 24 11:55:10 2022
$end
$version
	ModelSim Version 2020.1
$end
$timescale
	1ps
$end

$scope module practica2_vhd_vec_tst $end
$var wire 1 ! clk $end
$var wire 1 " ecuacion [1] $end
$var wire 1 # ecuacion [0] $end
$var wire 1 $ R [9] $end
$var wire 1 % R [8] $end
$var wire 1 & R [7] $end
$var wire 1 ' R [6] $end
$var wire 1 ( R [5] $end
$var wire 1 ) R [4] $end
$var wire 1 * R [3] $end
$var wire 1 + R [2] $end
$var wire 1 , R [1] $end
$var wire 1 - R [0] $end
$var wire 1 . rst $end

$scope module i1 $end
$var wire 1 / gnd $end
$var wire 1 0 vcc $end
$var wire 1 1 unknown $end
$var wire 1 2 devoe $end
$var wire 1 3 devclrn $end
$var wire 1 4 devpor $end
$var wire 1 5 ww_devoe $end
$var wire 1 6 ww_devclrn $end
$var wire 1 7 ww_devpor $end
$var wire 1 8 ww_R [9] $end
$var wire 1 9 ww_R [8] $end
$var wire 1 : ww_R [7] $end
$var wire 1 ; ww_R [6] $end
$var wire 1 < ww_R [5] $end
$var wire 1 = ww_R [4] $end
$var wire 1 > ww_R [3] $end
$var wire 1 ? ww_R [2] $end
$var wire 1 @ ww_R [1] $end
$var wire 1 A ww_R [0] $end
$var wire 1 B ww_clk $end
$var wire 1 C ww_rst $end
$var wire 1 D ww_ecuacion [1] $end
$var wire 1 E ww_ecuacion [0] $end
$var wire 1 F \rst~inputclkctrl_INCLK_bus\ [3] $end
$var wire 1 G \rst~inputclkctrl_INCLK_bus\ [2] $end
$var wire 1 H \rst~inputclkctrl_INCLK_bus\ [1] $end
$var wire 1 I \rst~inputclkctrl_INCLK_bus\ [0] $end
$var wire 1 J \clk~inputclkctrl_INCLK_bus\ [3] $end
$var wire 1 K \clk~inputclkctrl_INCLK_bus\ [2] $end
$var wire 1 L \clk~inputclkctrl_INCLK_bus\ [1] $end
$var wire 1 M \clk~inputclkctrl_INCLK_bus\ [0] $end
$var wire 1 N \R[9]~output_o\ $end
$var wire 1 O \R[8]~output_o\ $end
$var wire 1 P \R[7]~output_o\ $end
$var wire 1 Q \R[6]~output_o\ $end
$var wire 1 R \R[5]~output_o\ $end
$var wire 1 S \R[4]~output_o\ $end
$var wire 1 T \R[3]~output_o\ $end
$var wire 1 U \R[2]~output_o\ $end
$var wire 1 V \R[1]~output_o\ $end
$var wire 1 W \R[0]~output_o\ $end
$var wire 1 X \clk~input_o\ $end
$var wire 1 Y \clk~inputclkctrl_outclk\ $end
$var wire 1 Z \inst|PC[0]~14_combout\ $end
$var wire 1 [ \rst~input_o\ $end
$var wire 1 \ \rst~inputclkctrl_outclk\ $end
$var wire 1 ] \inst|PC[3]~26\ $end
$var wire 1 ^ \inst|PC[4]~27_combout\ $end
$var wire 1 _ \inst|PC[4]~28\ $end
$var wire 1 ` \inst|PC[5]~29_combout\ $end
$var wire 1 a \inst|PC[5]~30\ $end
$var wire 1 b \inst|PC[6]~31_combout\ $end
$var wire 1 c \inst|PC[6]~32\ $end
$var wire 1 d \inst|PC[7]~33_combout\ $end
$var wire 1 e \inst|PC[7]~34\ $end
$var wire 1 f \inst|PC[8]~35_combout\ $end
$var wire 1 g \inst|PC[8]~36\ $end
$var wire 1 h \inst|PC[9]~37_combout\ $end
$var wire 1 i \inst|PC[9]~38\ $end
$var wire 1 j \inst|PC[10]~39_combout\ $end
$var wire 1 k \inst|PC[10]~40\ $end
$var wire 1 l \inst|PC[11]~41_combout\ $end
$var wire 1 m \inst|PC[11]~42\ $end
$var wire 1 n \inst|PC[12]~43_combout\ $end
$var wire 1 o \inst|PC[12]~44\ $end
$var wire 1 p \inst|PC[13]~45_combout\ $end
$var wire 1 q \inst|PC[0]~21_combout\ $end
$var wire 1 r \ecuacion[1]~input_o\ $end
$var wire 1 s \inst|Mux6~0_combout\ $end
$var wire 1 t \ecuacion[0]~input_o\ $end
$var wire 1 u \inst|MAR[11]~1_combout\ $end
$var wire 1 v \inst|Mux7~0_combout\ $end
$var wire 1 w \inst|Mux9~0_combout\ $end
$var wire 1 x \inst|Equal0~0_combout\ $end
$var wire 1 y \inst|Selector1~0_combout\ $end
$var wire 1 z \inst|pr_state.state1~q\ $end
$var wire 1 { \inst|Selector2~0_combout\ $end
$var wire 1 | \inst|flag~q\ $end
$var wire 1 } \inst|pr_state~10_combout\ $end
$var wire 1 ~ \inst|pr_state.state2~q\ $end
$var wire 1 !! \inst|pr_state.state0~0_combout\ $end
$var wire 1 "! \inst|pr_state.state0~q\ $end
$var wire 1 #! \inst|PC[0]~19_combout\ $end
$var wire 1 $! \inst|PC[0]~18_combout\ $end
$var wire 1 %! \inst|PC[0]~20_combout\ $end
$var wire 1 &! \inst|PC[0]~22_combout\ $end
$var wire 1 '! \inst|PC[0]~15\ $end
$var wire 1 (! \inst|PC[1]~16_combout\ $end
$var wire 1 )! \inst|PC[1]~17\ $end
$var wire 1 *! \inst|PC[2]~23_combout\ $end
$var wire 1 +! \inst|PC[2]~24\ $end
$var wire 1 ,! \inst|PC[3]~25_combout\ $end
$var wire 1 -! \inst|MAR[9]~feeder_combout\ $end
$var wire 1 .! \inst|OP[1]~feeder_combout\ $end
$var wire 1 /! \inst|OP[3]~0_combout\ $end
$var wire 1 0! \inst|OP[0]~feeder_combout\ $end
$var wire 1 1! \inst|alu1|Mux0~0_combout\ $end
$var wire 1 2! \inst|alu1|Mux10~0_combout\ $end
$var wire 1 3! \inst|alu1|Mux11~0_combout\ $end
$var wire 1 4! \inst|alu1|R[4]~10_combout\ $end
$var wire 1 5! \inst|alu1|unidad_logica|salida[5]~feeder_combout\ $end
$var wire 1 6! \inst|alu1|Mux0~1_combout\ $end
$var wire 1 7! \inst|salida[9]~feeder_combout\ $end
$var wire 1 8! \inst|salida[8]~feeder_combout\ $end
$var wire 1 9! \inst|alu1|Mux2~0_combout\ $end
$var wire 1 :! \inst|alu1|R[7]~4_combout\ $end
$var wire 1 ;! \inst|alu1|Mux0~2_combout\ $end
$var wire 1 <! \inst|alu1|Mux0~3_combout\ $end
$var wire 1 =! \inst|alu1|R[7]~6_combout\ $end
$var wire 1 >! \inst|Mux9~1_combout\ $end
$var wire 1 ?! \inst|MAR[0]~0_combout\ $end
$var wire 1 @! \inst|Mux13~0_combout\ $end
$var wire 1 A! \inst|Mux12~0_combout\ $end
$var wire 1 B! \inst|Mux11~0_combout\ $end
$var wire 1 C! \inst|Mux30~0_combout\ $end
$var wire 1 D! \inst|Mux32~0_combout\ $end
$var wire 1 E! \inst|Mux29~0_combout\ $end
$var wire 1 F! \inst|alu1|unidad_aritmetica|divi|LessThan0~0_combout\ $end
$var wire 1 G! \inst|Mux31~0_combout\ $end
$var wire 1 H! \inst|alu1|Mux2~1_combout\ $end
$var wire 1 I! \inst|alu1|R[7]~5_combout\ $end
$var wire 1 J! \inst|alu1|Mux2~2_combout\ $end
$var wire 1 K! \inst|alu1|Mux2~3_combout\ $end
$var wire 1 L! \inst|salida[7]~feeder_combout\ $end
$var wire 1 M! \inst|salida[6]~feeder_combout\ $end
$var wire 1 N! \inst|alu1|Mux4~0_combout\ $end
$var wire 1 O! \inst|alu1|Mux4~1_combout\ $end
$var wire 1 P! \inst|alu1|Mux4~2_combout\ $end
$var wire 1 Q! \inst|salida[5]~feeder_combout\ $end
$var wire 1 R! \inst|alu1|unidad_logica|salida~0_combout\ $end
$var wire 1 S! \inst|alu1|R[4]~7_combout\ $end
$var wire 1 T! \inst|alu1|R[4]~0_combout\ $end
$var wire 1 U! \inst|alu1|Mux8~0_combout\ $end
$var wire 1 V! \inst|alu1|R[4]~8_combout\ $end
$var wire 1 W! \inst|alu1|R[4]~9_combout\ $end
$var wire 1 X! \inst|salida[4]~feeder_combout\ $end
$var wire 1 Y! \inst|alu1|unidad_logica|salida~1_combout\ $end
$var wire 1 Z! \inst|alu1|R[3]~1_combout\ $end
$var wire 1 [! \inst|salida[3]~feeder_combout\ $end
$var wire 1 \! \inst|alu1|unidad_logica|salida~2_combout\ $end
$var wire 1 ]! \inst|alu1|R[2]~2_combout\ $end
$var wire 1 ^! \inst|salida[2]~feeder_combout\ $end
$var wire 1 _! \inst|alu1|Mux8~1_combout\ $end
$var wire 1 `! \inst|salida[1]~feeder_combout\ $end
$var wire 1 a! \inst|alu1|unidad_logica|salida~3_combout\ $end
$var wire 1 b! \inst|alu1|R[0]~3_combout\ $end
$var wire 1 c! \inst|salida[0]~feeder_combout\ $end
$var wire 1 d! \inst|alu1|sel_aux\ [1] $end
$var wire 1 e! \inst|alu1|sel_aux\ [0] $end
$var wire 1 f! \inst|REG_B\ [9] $end
$var wire 1 g! \inst|REG_B\ [8] $end
$var wire 1 h! \inst|REG_B\ [7] $end
$var wire 1 i! \inst|REG_B\ [6] $end
$var wire 1 j! \inst|REG_B\ [5] $end
$var wire 1 k! \inst|REG_B\ [4] $end
$var wire 1 l! \inst|REG_B\ [3] $end
$var wire 1 m! \inst|REG_B\ [2] $end
$var wire 1 n! \inst|REG_B\ [1] $end
$var wire 1 o! \inst|REG_B\ [0] $end
$var wire 1 p! \inst|alu1|unidad_logica|salida\ [9] $end
$var wire 1 q! \inst|alu1|unidad_logica|salida\ [8] $end
$var wire 1 r! \inst|alu1|unidad_logica|salida\ [7] $end
$var wire 1 s! \inst|alu1|unidad_logica|salida\ [6] $end
$var wire 1 t! \inst|alu1|unidad_logica|salida\ [5] $end
$var wire 1 u! \inst|alu1|unidad_logica|salida\ [4] $end
$var wire 1 v! \inst|alu1|unidad_logica|salida\ [3] $end
$var wire 1 w! \inst|alu1|unidad_logica|salida\ [2] $end
$var wire 1 x! \inst|alu1|unidad_logica|salida\ [1] $end
$var wire 1 y! \inst|alu1|unidad_logica|salida\ [0] $end
$var wire 1 z! \inst|OP\ [3] $end
$var wire 1 {! \inst|OP\ [2] $end
$var wire 1 |! \inst|OP\ [1] $end
$var wire 1 }! \inst|OP\ [0] $end
$var wire 1 ~! \inst|PC\ [13] $end
$var wire 1 !" \inst|PC\ [12] $end
$var wire 1 "" \inst|PC\ [11] $end
$var wire 1 #" \inst|PC\ [10] $end
$var wire 1 $" \inst|PC\ [9] $end
$var wire 1 %" \inst|PC\ [8] $end
$var wire 1 &" \inst|PC\ [7] $end
$var wire 1 '" \inst|PC\ [6] $end
$var wire 1 (" \inst|PC\ [5] $end
$var wire 1 )" \inst|PC\ [4] $end
$var wire 1 *" \inst|PC\ [3] $end
$var wire 1 +" \inst|PC\ [2] $end
$var wire 1 ," \inst|PC\ [1] $end
$var wire 1 -" \inst|PC\ [0] $end
$var wire 1 ." \inst|MAR\ [11] $end
$var wire 1 /" \inst|MAR\ [10] $end
$var wire 1 0" \inst|MAR\ [9] $end
$var wire 1 1" \inst|MAR\ [8] $end
$var wire 1 2" \inst|MAR\ [7] $end
$var wire 1 3" \inst|MAR\ [6] $end
$var wire 1 4" \inst|MAR\ [5] $end
$var wire 1 5" \inst|MAR\ [4] $end
$var wire 1 6" \inst|MAR\ [3] $end
$var wire 1 7" \inst|MAR\ [2] $end
$var wire 1 8" \inst|MAR\ [1] $end
$var wire 1 9" \inst|MAR\ [0] $end
$var wire 1 :" \inst|alu1|R\ [9] $end
$var wire 1 ;" \inst|alu1|R\ [8] $end
$var wire 1 <" \inst|alu1|R\ [7] $end
$var wire 1 =" \inst|alu1|R\ [6] $end
$var wire 1 >" \inst|alu1|R\ [5] $end
$var wire 1 ?" \inst|alu1|R\ [4] $end
$var wire 1 @" \inst|alu1|R\ [3] $end
$var wire 1 A" \inst|alu1|R\ [2] $end
$var wire 1 B" \inst|alu1|R\ [1] $end
$var wire 1 C" \inst|alu1|R\ [0] $end
$var wire 1 D" \inst|salida\ [9] $end
$var wire 1 E" \inst|salida\ [8] $end
$var wire 1 F" \inst|salida\ [7] $end
$var wire 1 G" \inst|salida\ [6] $end
$var wire 1 H" \inst|salida\ [5] $end
$var wire 1 I" \inst|salida\ [4] $end
$var wire 1 J" \inst|salida\ [3] $end
$var wire 1 K" \inst|salida\ [2] $end
$var wire 1 L" \inst|salida\ [1] $end
$var wire 1 M" \inst|salida\ [0] $end
$var wire 1 N" \ALT_INV_rst~inputclkctrl_outclk\ $end
$var wire 1 O" \ALT_INV_rst~input_o\ $end
$upscope $end
$upscope $end
$enddefinitions $end
#0
$dumpvars
0!
0.
0/
10
x1
12
13
14
15
16
17
0B
0C
0N
0O
0P
0Q
0R
0S
0T
0U
0V
0W
0X
0Y
1Z
0[
0\
1]
0^
0_
0`
1a
0b
0c
0d
1e
0f
0g
0h
1i
0j
0k
0l
1m
0n
0o
0p
0q
0r
1s
0t
1u
1v
1w
0x
1y
0z
0{
0|
0}
0~
1!!
0"!
0#!
0$!
0%!
1&!
0'!
0(!
1)!
0*!
0+!
0,!
0-!
0.!
0/!
00!
01!
02!
03!
04!
05!
06!
07!
08!
09!
0:!
0;!
0<!
0=!
1>!
0?!
1@!
0A!
0B!
0C!
1D!
0E!
1F!
0G!
0H!
0I!
1J!
0K!
0L!
0M!
0N!
1O!
0P!
0Q!
0R!
0S!
0T!
0U!
0V!
0W!
0X!
0Y!
0Z!
0[!
0\!
0]!
0^!
0_!
0`!
0a!
0b!
0c!
1N"
1O"
0"
0#
08
09
0:
0;
0<
0=
0>
0?
0@
0A
0D
0E
0d!
0e!
xf!
xg!
xh!
xi!
xj!
xk!
0l!
0m!
0n!
0o!
xp!
xq!
xr!
xs!
0t!
xu!
0v!
0w!
0x!
0y!
0z!
0{!
0|!
0}!
0~!
0!"
0""
0#"
0$"
0%"
0&"
0'"
0("
0)"
0*"
0+"
0,"
0-"
0."
0/"
00"
01"
x2"
x3"
x4"
x5"
x6"
07"
08"
09"
0:"
x;"
0<"
x="
0>"
0?"
0@"
0A"
0B"
0C"
0D"
0E"
0F"
0G"
0H"
0I"
0J"
0K"
0L"
0M"
1J
1K
1L
0M
1F
1G
1H
0I
0$
0%
0&
0'
0(
0)
0*
0+
0,
0-
$end
#500
1!
1B
1X
1M
1Y
1."
1/"
11"
1z
1"!
1-"
0Z
1'!
0>!
1B!
0u
1#!
1{
1/!
10!
1x
0y
0{
1}
0/!
0&!
1(!
#1000
0!
0B
0X
0M
0Y
#1500
1!
1B
1X
1M
1Y
0z
1~
0!!
0}
#2000
0!
0B
0X
0M
0Y
#2500
1!
1B
1X
1M
1Y
0~
0"!
1u
1y
0#!
1!!
1&!
#3000
0!
0B
0X
0M
0Y
#3500
1!
1B
1X
1M
1Y
1z
1"!
0-"
1,"
17"
1C!
1E!
0(!
0)!
1?!
1Z
0'!
0v
0B!
0u
1#!
0y
1}
0&!
1(!
1)!
1*!
0*!
#4000
0!
0B
0X
0M
0Y
#4500
1!
1B
1X
1M
1Y
0z
1~
0!!
0}
#5000
0!
0B
0X
0M
0Y
#5500
1!
1B
1X
1M
1Y
0~
0"!
1u
1y
0#!
1!!
1&!
#6000
0!
0B
0X
0M
0Y
#6500
1!
1B
1X
1M
1Y
0/"
1z
1"!
1-"
19"
07"
0C!
0E!
0Z
1'!
1v
0@!
0u
1#!
0y
1}
0x
1y
1{
0}
1/!
0&!
0(!
0)!
1*!
#7000
0!
0B
0X
0M
0Y
#7500
1!
1B
1X
1M
1Y
1|
1}!
1z!
1o!
0F!
19!
1T!
1Z!
1]!
1b!
12!
1:!
1=!
1I!
1V!
0y
1}
0J!
0O!
1K!
1P!
0P!
0K!
#8000
0!
0B
0X
0M
0Y
#8500
1!
1B
1X
1M
1Y
0z
1~
1d!
14!
1R!
1W!
1Y!
1\!
1a!
0!!
0{
0}
0/!
15!
#9000
0!
0B
0X
0M
0Y
#9500
1!
1B
1X
1M
1Y
0|
0~
0"!
1t!
1x!
1v!
1w!
1y!
1<!
1u
0#!
1!!
1y
1&!
#10000
0!
0B
0X
0M
0Y
#10500
1!
1B
1X
1M
1Y
1/"
1z
1"!
0-"
0,"
1+"
0*!
1+!
1(!
1)!
0?!
1Z
0'!
1>!
1@!
1B!
0u
1#!
1{
1/!
1x
0y
0{
1}
0/!
0&!
0(!
1*!
0+!
1,!
0,!
#11000
0!
0B
0X
0M
0Y
#11500
1!
1B
1X
1M
1Y
0z
1~
0!!
0}
#12000
0!
0B
0X
0M
0Y
#12500
1!
1B
1X
1M
1Y
0~
0"!
1u
1y
0#!
1!!
1&!
#13000
0!
0B
0X
0M
0Y
#13500
1!
1B
1X
1M
1Y
1z
1"!
1-"
17"
1C!
1G!
0Z
1'!
0v
0>!
0B!
0u
1#!
0y
1}
0&!
1(!
#14000
0!
0B
0X
0M
0Y
#14500
1!
1B
1X
1M
1Y
0z
1~
0!!
0}
#15000
0!
0B
0X
0M
0Y
#15500
1!
1B
1X
1M
1Y
0~
0"!
1u
1y
0#!
1!!
1&!
#16000
0!
0B
0X
0M
0Y
#16500
1!
1B
1X
1M
1Y
0/"
1z
1"!
0-"
1,"
07"
0C!
0G!
0(!
0)!
1?!
1Z
0'!
1v
1A!
0u
1#!
0y
1}
0x
1y
1{
0}
1/!
0&!
1(!
1)!
0*!
1+!
1,!
1*!
0+!
0,!
#17000
0!
0B
0X
0M
0Y
#17500
1!
1B
1X
1M
1Y
1|
0y
1}
#18000
0!
0B
0X
0M
0Y
#18500
1!
1B
1X
1M
1Y
0z
1~
0!!
0{
0}
0/!
#19000
0!
0B
0X
0M
0Y
#19500
1!
1B
1X
1M
1Y
0|
0~
0"!
1u
0#!
1!!
1y
1&!
